{
   "id":"org.kde.skrooge",
   "branch":"master",
   "runtime":"org.kde.Platform",
   "runtime-version":"5.15-21.08",
   "sdk":"org.kde.Sdk",
   "base":"io.qt.qtwebkit.BaseApp",
   "base-version":"5.15-21.08",
   "command":"skrooge",
   "rename-icon":"skrooge",
   "copy-icon":true,
   "cleanup":[
      "/include",
      "/lib/pkgconfig",
      "/lib/*.a",
      "/lib/*.la",
      "/share/man"
   ],
   "cleanup-commands":[
      "rm -rf /app/{include,lib/{cmake,mkspecs,pkgconfig}}"
   ],
   "tags":[
      "nightly"
   ],
   "desktop-file-name-prefix":"(Nightly) ",
   "finish-args":[
      "--share=ipc",
      "--socket=x11",
      "--socket=wayland",
      "--device=dri",
      "--filesystem=host",
      "--socket=pulseaudio"
   ],
   "modules":[
      {
         "name":"tcl",
         "//":"sqlcipher requires tclsh during build",
         "subdir":"unix",
         "build-options":{
            "no-debuginfo":true
         },
         "cleanup":[
            "/*"
         ],
         "sources":[
            {
               "type":"archive",
               "url":"https://downloads.sourceforge.net/project/tcl/Tcl/8.6.8/tcl8.6.8-src.tar.gz",
               "sha256":"c43cb0c1518ce42b00e7c8f6eaddd5195c53a98f94adc717234a65cbcfd3f96a"
            }
         ]
      },
      {
         "name":"sqlcipher",
         "rm-configure":true,
         "config-opts":[
            "--enable-tempstore=yes",
            "--disable-tcl"
         ],
         "build-options":{
            "env":{
               "CFLAGS":"-g -O2 -DSQLITE_HAS_CODEC",
               "LDFLAGS":"-lcrypto"
            }
         },
         "sources":[
            {
               "type":"git",
               "url":"https://github.com/sqlcipher/sqlcipher.git"
            },
            {
               "type":"shell",
               "commands":[
                  "cp -p /usr/share/automake-*/config.{sub,guess} ."
               ]
            },
            {
               "type":"script",
               "dest-filename":"autogen.sh",
               "commands":[
                  "AUTOMAKE=\"automake --foreign\" autoreconf -vfi"
               ]
            }
         ]
      },
      {
         "name":"qca",
         "buildsystem":"cmake-ninja",
         "config-opts":[
            "-DQT4_BUILD=OFF",
            "-DQCA_SUFFIX=qt5",
            "-DENABLE_TESTING=OFF",
            "-DCMAKE_INSTALL_LIBDIR=lib"
         ],
         "sources":[
            {
               "type":"git",
               "url":"https://invent.kde.org/libraries/qca.git"
            }
         ]
      },
      {
         "name":"grantlee",
         "buildsystem":"cmake-ninja",
         "sources":[
            {
               "type":"git",
               "url":"https://github.com/steveire/grantlee.git"
            }
         ]
      },
      {
        "name": "opensp",
        "rm-configure": true,
        "config-opts": [ "--disable-doc-build" ],
        "sources": [
            {
                "type": "archive",
                "url": "https://downloads.sourceforge.net/project/openjade/opensp/1.5.2/OpenSP-1.5.2.tar.gz",
                "sha256": "57f4898498a368918b0d49c826aa434bb5b703d2c3b169beb348016ab25617ce"
            },
            {
                "type": "script",
                "dest-filename": "autogen.sh",
                "commands": [
                    "autoreconf -vfi"
                ]
            }
        ]
      },
      {
        "name": "gengetopt",
        "//":"libofx requires gengetopt during build",
        "rm-configure": true,
        "cleanup":[
            "/*"
         ],
        "sources": [
            {
                "type": "archive",
                "url": "https://ftp.gnu.org/gnu/gengetopt/gengetopt-2.23.tar.xz",
                "sha256": "b941aec9011864978dd7fdeb052b1943535824169d2aa2b0e7eae9ab807584ac"
            },
            {
                "type": "script",
                "dest-filename": "autogen.sh",
                "commands": [
                    "autoreconf -vfi"
                ]
            }
        ]
      },
      {
        "name": "libofx",
        "no-parallel-make": true,
        "config-opts": [
            "--with-opensp-includes=/app/include/OpenSP",
            "--with-opensp-libs=/lib"
        ],
        "sources": [
            {
                "type": "archive",
                "url": "https://github.com/libofx/libofx/archive/0.10.5.tar.gz",
                "sha256": "ad92bb22c03c7268ec67c0f54805dc3cc9ce7b04b2dc54b9270e4a4a59aace18"
            }
        ]
      },
      {
         "name":"skrooge",
         "buildsystem":"cmake-ninja",
         "config-opts":[
            "-DENABLE_TESTING=OFF",
            "-DSKG_BUILD_TEST=OFF",
            "-DSKG_DESIGNER=OFF",
            "-DQt5WebKit_DIR=/app/lib/cmake/Qt5WebKit/",
            "-DQt5WebKitWidgets_DIR=/app/lib/cmake/Qt5WebKitWidgets/"
         ],
         "builddir":true,
         "sources":[
            {
               "type":"git",
               "url":"https://invent.kde.org/office/skrooge.git"
            }
         ]
      }
   ]
}
